[gd_scene load_steps=2 format=2]

[ext_resource path="res://Frogic/Art/Trees-3.png" type="Texture" id=1]

[node name="Arbre-2" type="Sprite"]
position = Vector2( 176, 96 )
texture = ExtResource( 1 )
offset = Vector2( 7, -28 )
hframes = 2
vframes = 2
frame = 2
